<svg width="16" height="18" viewBox="0 0 16 18" fill="none" xmlns="http://www.w3.org/2000/svg">
<path d="M15.364 17.4288H13.3155L12.7086 15.5926C12.2921 16.1568 11.7311 16.644 11.1956 16.9655C10.2946 17.4801 9.12327 17.6767 8.10157 17.6767C6.59027 17.6767 4.68967 17.3553 3.10527 15.5926C1.64497 13.9735 0.886772 11.4244 0.886772 9.24456C0.886772 7.01173 1.52087 4.51218 2.98117 2.8196C4.71347 0.810725 6.88097 0.369629 8.61157 0.369629C13.6572 0.369629 15.0801 3.7565 15.3147 6.30221H11.5356C11.4642 5.69015 11.2211 4.95498 10.8556 4.4626C10.4663 3.92405 9.75907 3.31198 8.54017 3.31198C7.58817 3.31198 6.46787 3.7035 5.73687 5.12595C5.54307 5.51747 5.08067 6.54669 5.08067 8.99837C5.08067 10.4448 5.24897 12.0382 5.85927 13.0674C6.37267 13.924 7.24647 14.736 8.68467 14.736C9.58907 14.736 10.3184 14.3924 10.8063 13.9017C11.2925 13.411 11.6614 12.5801 11.6614 11.6962V11.2774H8.31917V8.40853H15.3657V17.4288H15.364Z" fill="white"/>
</svg>
